{
  "success": true,
  "size": 10,
  "totalHits": 409,
  "hitsPerPage": 10,
  "page": 1,
  "totalPages": 41,
  "timeMs": 13,
  "data": [
    {
      "title": "Como declarar o Imposto de Renda 2025? Veja passo a passo como preencher a declaração",
      "url": "https://oglobo.globo.com/economia/imposto-de-renda/noticia/2025/03/14/como-declarar-o-imposto-de-renda-2025-veja-passo-a-passo-como-preencher-a-declaracao.ghtml",
      "excerpt": "Receita Federal já liberou download do programa para computador e celular; prazo para entrega começa em 17 de março e vai até dia 30 de maio",
      "thumbnail": "https://s2-oglobo.glbimg.com/wqDm7XMRDxP54c3TPKoehWrVHto=/1200x/smart/filters:cover():strip_icc()/i.s3.glbimg.com/v1/AUTH_da025474c0c44edd99332dddb09cabe8/internal_photos/bs/2025/F/m/RC0vmURTAWIUmwEOXgtQ/imposto-de-renda-2025-5-alexandre-cassiano-1.jpg",
      "language": "pt",
      "paywall": false,
      "contentLength": 19456,
      "date": "2025-03-14T03:00:29+00:00",
      "authors": [
        "Paulo Renato Nepomuceno"
      ],
      "keywords": [
        "hard news",
        "ir 2025",
        "imposto de renda 2025",
        "receita federal"
      ],
      "publisher": {
        "name": "O GLOBO",
        "url": "https://oglobo.globo.com",
        "favicon": "https://staticns.bonai.io/publisher/gRtBXRJPm6ngw4Aq3oq6A4FNIFWVpmQh3KdTiuoT4"
      }
    },
    {
      "title": "CBF aprova mudanças no Brasileirão 2025",
      "url": "https://www.lance.com.br/futebol-nacional/cbf-aprova-mudancas-no-brasileirao-2025.html",
      "excerpt": "Em conselho técnico realizado na sede da CBF, dirigentes e representantes dos 20 clubes da Série A aprovaram mudanças no Brasileirão 2025.",
      "thumbnail": "https://lncimg.lance.com.br/cdn-cgi/image/width=1280,height=720,quality=75,fit=cover,format=webp/uploads/2025/03/Conselho-Tecnico-na-sede-da-CBF-aprovou-mudancas-no-Brasileirao-2025-scaled-aspect-ratio-512-320.jpeg",
      "language": "pt",
      "paywall": false,
      "contentLength": 2395,
      "date": "2025-03-12T21:45:46+00:00",
      "authors": [
        "Sharon Nigri Prais"
      ],
      "keywords": [
        "Brasileirão",
        "CBF",
        "Futebol Nacional"
      ],
      "publisher": {
        "name": "LANCE!",
        "url": "https://www.lance.com.br",
        "favicon": "https://staticns.bonai.io/publisher/ax1yQYbOEUaU47J4gSXLr1Je7IYMyZOfGB0CfPl3w"
      }
    },
    {
      "title": "XP tomará ?medidas legais? contra empresa de análise que a acusou de esquema de pirâmide; ação cai ? Money Times",
      "url": "https://www.moneytimes.com.br/xp-tomara-medidas-legais-contra-empresa-de-analise-que-acusou-de-esquema-de-piramide-acao-cai-rnda/",
      "excerpt": "A XP (XP; XPBR31) reagiu ao relatório que a acusou de praticar um esquema de pirâmide financeira e informou que tomará ?todas as medidas legais cabíveis?",
      "thumbnail": "https://www.moneytimes.com.br/uploads/2024/08/xp-investimentos-inc-1.webp",
      "language": "pt",
      "paywall": false,
      "contentLength": 4395,
      "date": "2025-03-13T11:30:56+00:00",
      "authors": [
        "Equipe Money Times"
      ],
      "keywords": [],
      "publisher": {
        "name": "Money Times",
        "url": "https://www.moneytimes.com.br",
        "favicon": "https://staticns.bonai.io/publisher/aiYx9OhWzHrnbXrLGiJRKzD0IECzZ5Flh907qY14VdQ"
      }
    },
    {
      "title": "Atlético de Madrid vai a Uefa para contestar pênalti anulado",
      "url": "https://ge.globo.com/futebol/futebol-internacional/liga-dos-campeoes/noticia/2025/03/13/atletico-de-madrid-vai-a-uefa-para-contestar-penalti-anulado-na-champions.ghtml",
      "excerpt": "Clube de Diego Simeone entende que não há imagens claras o suficiente para apontar a movimentação da bola no momento da batida de Julián Alvarez",
      "thumbnail": "https://s2-ge.glbimg.com/HJM_xtdeiaj8kz6nfTWIm9tR9s4=/1280x0/filters:format(jpeg)/https://s01.video.glbimg.com/x720/13416456.jpg",
      "language": "pt",
      "paywall": false,
      "contentLength": 4105,
      "date": "2025-03-13T14:39:18+00:00",
      "authors": [],
      "keywords": [],
      "publisher": {
        "name": "Ge",
        "url": "https://ge.globo.com",
        "favicon": "https://staticns.bonai.io/publisher/Z5l2nfGQ8rdLYCxbs3w8XOtWTi3eyEtw7xepH18paw"
      }
    },
    {
      "title": "Tesla em queda livre: até mesmo fãs de Musk estão cautelosos com baixa das ações",
      "url": "https://www.infomoney.com.br/mercados/tesla-em-queda-livre-ate-mesmo-fas-de-musk-estao-cautelosos-com-baixa-das-acoes/",
      "excerpt": "Mesmo com queda recente, fiéis de Musk estão nervosos para entrar e comprar ações, temendo que o banho de sangue possa estar longe de acabar",
      "thumbnail": "https://www.infomoney.com.br/wp-content/uploads/2025/03/Captura-de-tela-2025-03-12-141245.png?quality=70",
      "language": "pt",
      "paywall": false,
      "contentLength": 6655,
      "date": "2025-03-12T17:16:19+00:00",
      "authors": [
        "Bloomberg"
      ],
      "keywords": [],
      "publisher": {
        "name": "InfoMoney",
        "url": "https://www.infomoney.com.br",
        "favicon": "https://staticns.bonai.io/publisher/DMcNBb3P0EPFbGTBPFt4UvoO7XMtNBKYKL0fqsKod9w"
      }
    },
    {
      "title": "A avaliação da nova presidente do STM sobre crimes militares de Bolsonaro",
      "url": "https://www.cartacapital.com.br/politica/a-avaliacao-da-nova-presidente-do-stm-sobre-crimes-militares-de-bolsonaro/",
      "excerpt": "A PGR denunciou o ex-presidente ao STF por cinco crimes no inquérito sobre a trama golpista de 2022",
      "thumbnail": "https://www.cartacapital.com.br/wp-content/uploads/2025/03/STM2.jpg",
      "language": "pt",
      "paywall": true,
      "contentLength": 2566,
      "date": "2025-03-12T19:18:17+00:00",
      "authors": [
        "CartaCapital"
      ],
      "keywords": [
        "Bolsonarismo",
        "Jair Bolsonaro",
        "Maria Elizabeth Rocha",
        "STM"
      ],
      "publisher": {
        "name": "CartaCapital",
        "url": "https://www.cartacapital.com.br",
        "favicon": "https://staticns.bonai.io/publisher/RnAqxDM60s67LNqjImY9G5TLW8LmM04m5SzET1vfQ"
      }
    },
    {
      "title": "Frei Gilson: o sacerdote anticomunista atacado pela esquerda e abraçado pelo bolsonarismo - BBC News Brasil",
      "url": "https://www.bbc.com/portuguese/articles/cn89295y7jzo",
      "excerpt": "Sacerdote católico é fenômeno das redes sociais e causou polêmica ao falar que mulher foi criada para ser ?auxiliar? dos homens",
      "thumbnail": "https://ichef.bbci.co.uk/news/1024/branded_portuguese/7158/live/d4c67c50-ffa1-11ef-b50e-9d086302645f.png",
      "language": "pt",
      "paywall": false,
      "contentLength": 16394,
      "date": "2025-03-13T09:09:21+00:00",
      "authors": [
        "Leandro Prazeres"
      ],
      "keywords": [],
      "publisher": {
        "name": "BBC",
        "url": "https://www.bbc.com",
        "favicon": "https://staticns.bonai.io/publisher/bq7G9zXEC8uVJSSwx9TGnJNOONG2Pmgc6cZpBFXU"
      }
    },
    {
      "title": "Bolsonarismo explora sucesso de Frei Gilson para ganhar força com católicos",
      "url": "https://noticias.uol.com.br/politica/ultimas-noticias/2025/03/13/apos-dominar-campo-evangelico-direita-avanca-sobre-eleitor-catolico.htm",
      "excerpt": "O bolsonarismo tenta se associar a um frei popstar para avançar sobre os católicos. A ofensiva conta com ferramentas testadas e aprovadas com os evangélicos: se vender como defensor do cristianismo e dos valores cristãos.O que aconteceuO frei Gilson re",
      "thumbnail": "https://conteudo.imguol.com.br/c/noticias/b9/2025/03/12/frei-gilson-defendeu-a-submissao-da-mulher-e-foi-atacado-por-militantes-da-esquerda-1741792143913_v2_615x300.jpg",
      "language": "pt",
      "paywall": false,
      "contentLength": 5365,
      "date": "2025-03-13T13:10:36+00:00",
      "authors": [
        "Ana Paula Bimbati",
        "Felipe Pereira"
      ],
      "keywords": [],
      "publisher": {
        "name": "UOL Confere",
        "url": "https://noticias.uol.com.br",
        "favicon": "https://staticns.bonai.io/publisher/fp5RoDvZUlx1k0keJ3xytW5nzwqsVtayHkBb8mWD2CM"
      }
    },
    {
      "title": "Ficou perigoso protestar nos EUA?",
      "url": "https://oglobo.globo.com/blogs/guga-chacra/post/2025/03/ficou-perigoso-protestar-nos-eua.ghtml",
      "excerpt": "Conforme escreveu a colunista Michelle Goldberg do NYT, é a maior ameaça à liberdade de expressão nos EUA em décadas",
      "thumbnail": "https://s2-oglobo.glbimg.com/65yNfyco_GR5BRVyTVLuGc0kHYE=/1200x/smart/filters:cover():strip_icc()/i.s3.glbimg.com/v1/AUTH_da025474c0c44edd99332dddb09cabe8/internal_photos/bs/2025/m/y/3lypQfQA6Jr3GnrZXBUg/11met-khalil-hearing-bjlq-jumbo.jpg",
      "language": "pt",
      "paywall": false,
      "contentLength": 5407,
      "date": "2025-03-13T07:30:23+00:00",
      "authors": [
        "Guga Chacra"
      ],
      "keywords": [
        "contexto ou análise",
        "estados unidos",
        "imigração"
      ],
      "publisher": {
        "name": "O GLOBO",
        "url": "https://oglobo.globo.com",
        "favicon": "https://staticns.bonai.io/publisher/gRtBXRJPm6ngw4Aq3oq6A4FNIFWVpmQh3KdTiuoT4"
      }
    },
    {
      "title": "Atuações do Flamengo: Wesley vai bem, mas Arrascaeta fica devendo no primeiro jogo da final; dê suas notas",
      "url": "https://ge.globo.com/futebol/times/flamengo/noticia/2025/03/12/atuacoes-ataque-do-flamengo-e-eficiente-mas-defesa-deixa-final-do-carioca-aberta-de-suas-notas.ghtml",
      "excerpt": "Rubro-Negro leva gol no final, mas vence por 2 a 1 e decidirá a taça no domingo, às 16h, no Maracanã",
      "thumbnail": "https://s2-ge.glbimg.com/fKAkMdWP5vxIXz2oVmE3CIzQ8H0=/5032x0/filters:format(jpeg)/https://i.s3.glbimg.com/v1/AUTH_bc8228b6673f488aa253bbcb03c80ec5/internal_photos/bs/2025/t/C/K6jC5PR5CHUle5RKcdPw/3.jpg",
      "language": "pt",
      "paywall": false,
      "contentLength": 2919,
      "date": "2025-03-13T02:51:48+00:00",
      "authors": [],
      "keywords": [],
      "publisher": {
        "name": "Ge",
        "url": "https://ge.globo.com",
        "favicon": "https://staticns.bonai.io/publisher/Z5l2nfGQ8rdLYCxbs3w8XOtWTi3eyEtw7xepH18paw"
      }
    }
  ]
}